10 cls:setfp 0
20 x=16088.09
30 y=49212.24
40 h=19.86
50 p=mil2deg(6093)
60 d=168.37
70 a=dms2deg(53.3320)
80 v=dms2deg(90.3022)
90 m=dms2deg(d)
100 t=traverse(x,y,h,p,d,a,v)
150 printf "X=%.2f\nY=%.2f\nH=%.2f";X;Y;H
