10 CLS: PRINT "05_coordinate_adj": MODE 4: SETFP 2
20 INPUT "1 MIL: 2 DEG? ";T
30 INPUT "ASS SCP X=";L: INPUT "ASS SCP Y=";M: INPUT "ASS SCP H=";N
40 INPUT "ASS <SCP-P=";Q
50 INPUT "SCP X=";U: INPUT "SCP Y=";V: INPUT "SCP H=";W
60 INPUT "<SCP-P=";P
70 IF T=1 THEN 110
80 J=Q: GOSUB 160: Q=J
90 J=P: GOSUB 160: P=J
100 P=P-Q: GOTO 120
110 P=(P-Q)/160*9
120 INPUT "X=";X: INPUT "Y=";Y: INPUT "H=";H
130 D=POL(Y-M, X-L): A=Y+P
140 X=V+REC(D,A): Y=Y+U: H=W-N+H
150 PRINT "(";Y;",";X;") H=";H: GOTO 120
160 I=SGN(J): J=ABS(J): J=INT(J)+INT(FRAC(J)*100)/60+FRAC(J*100)/36
170 J=I*J: RETURN
