1 CLS: PRINT "06_side3"
10 INPUT "A=";A: INPUT "B=";B: INPUT "C=";C
20 E=(A+B+C)/2: F=E*(E-A)/(B*C): F=SQR(F)
30 G=ACS(F): Q=2*G
40 R=B/A*SIN(Q): S=C/A*SIN(Q)
50 R=ASN(R): S=ASN(S): T=Q+R+S
60 PRINT "Q=";DMS$(Q): PRINT "R=";DMS$(R): PRINT "S=";DMS$(S)
70 IF T>DEG(180,00,09) OR T<DEG(179,59,51) THEN PRINT "ERROR! RECALCULATE"
